<?xml version="1.0" standalone="no"?>
<!DOCTYPE svg PUBLIC "-//W3C//DTD SVG 20010904//EN"
 "http://www.w3.org/TR/2001/REC-SVG-20010904/DTD/svg10.dtd">
<svg version="1.0" xmlns="http://www.w3.org/2000/svg"
 width="3280.000000pt" height="3280.000000pt" viewBox="0 0 3280.000000 3280.000000"
 preserveAspectRatio="xMidYMid meet">
<metadata>
Created by potrace 1.16, written by Peter Selinger 2001-2019
</metadata>
<g transform="translate(0.000000,3280.000000) scale(0.100000,-0.100000)"
fill="#FFFFFF" stroke="none">
<path d="M14126 31738 c2 -24 8 -124 14 -223 69 -1160 229 -2077 510 -2918
350 -1046 939 -2102 1926 -3452 l81 -110 -91 7 c-145 10 -620 9 -788 -2 -1491
-100 -3025 -646 -4308 -1533 -1637 -1132 -2804 -2757 -3400 -4733 -360 -1193
-433 -2595 -204 -3894 58 -329 113 -562 230 -977 335 -1190 1002 -2378 1879
-3348 150 -166 462 -475 631 -625 931 -827 1993 -1428 3244 -1835 598 -194
1385 -333 2132 -376 271 -15 930 -7 1168 15 816 76 1494 225 2212 487 1039
378 1968 935 2832 1698 175 154 574 552 727 726 781 882 1363 1890 1713 2962
57 174 146 481 146 501 0 9 -41 -45 -91 -119 -781 -1146 -1743 -1949 -3033
-2533 -512 -232 -1267 -473 -1836 -585 -1156 -228 -2275 -178 -3451 154 -702
198 -1314 497 -1864 910 -424 318 -780 692 -1060 1114 -747 1125 -928 2540
-525 4096 94 365 137 484 271 745 311 611 750 1071 1343 1410 281 161 647 302
971 374 955 213 2009 -46 2825 -695 134 -107 378 -345 483 -473 434 -524 688
-1138 749 -1811 10 -114 14 -134 28 -130 828 246 1373 281 2093 134 141 -28
509 -119 550 -134 10 -4 17 -3 17 4 0 7 -518 530 -1152 1164 -859 859 -1163
1169 -1195 1219 -157 242 -175 515 -51 763 117 232 347 417 609 486 114 31
290 31 400 1 95 -25 216 -86 289 -143 31 -24 355 -345 720 -713 366 -368 814
-813 995 -989 339 -329 406 -402 452 -491 70 -134 13 -267 -177 -417 -44 -34
-77 -66 -73 -69 13 -11 588 -98 818 -124 363 -42 768 -50 1009 -21 229 27 447
85 591 157 177 89 336 232 429 387 l50 82 -1462 1462 -1462 1462 0 56 c0 158
-50 489 -112 734 -86 345 -208 674 -387 1040 -287 586 -661 1127 -1152 1666
-710 777 -887 976 -1174 1314 -1391 1643 -2176 3062 -2504 4529 -22 98 -42
180 -44 182 -6 7 -17 -347 -17 -565 1 -1616 253 -2835 831 -4020 60 -123 101
-217 91 -210 -9 8 -82 68 -162 134 -1251 1033 -2310 2340 -3212 3965 -337 606
-693 1328 -994 2012 -38 87 -72 158 -75 158 -4 0 -5 -19 -3 -42z m7595 -9240
c93 -43 132 -91 216 -267 187 -391 277 -657 299 -886 l7 -70 -39 36 c-22 20
-239 216 -484 436 -483 434 -500 453 -500 547 0 26 6 59 14 74 17 32 81 95
116 113 110 56 270 64 371 17z"/>
<path d="M13355 28575 c-921 -233 -1713 -525 -2540 -935 -3697 -1834 -6271
-5379 -6854 -9440 -131 -912 -164 -1864 -96 -2760 206 -2691 1244 -5197 3000
-7240 391 -455 883 -947 1325 -1326 333 -285 727 -590 1060 -821 2191 -1517
4817 -2297 7485 -2223 2401 67 4637 771 6620 2085 728 482 1314 963 1950 1599
629 629 1099 1202 1580 1926 1150 1729 1837 3662 2040 5740 65 663 72 1492 19
2180 -175 2281 -973 4474 -2301 6325 -281 391 -571 752 -897 1115 -156 173
-680 701 -856 861 -1544 1406 -3400 2404 -5402 2905 -119 30 -219 54 -222 54
-41 0 131 -300 402 -700 239 -352 715 -1009 1095 -1509 l141 -186 295 -147
c311 -154 501 -257 766 -416 1621 -971 2969 -2355 3895 -4002 1448 -2573 1773
-5659 895 -8490 -616 -1986 -1807 -3766 -3420 -5110 -1049 -873 -2270 -1549
-3560 -1970 -909 -296 -1828 -466 -2815 -520 -234 -13 -880 -13 -1110 0 -351
19 -673 52 -1015 101 -3001 433 -5707 2136 -7410 4663 -1107 1642 -1726 3492
-1835 5486 -13 238 -13 860 0 1105 102 1908 679 3703 1703 5294 1206 1876
2970 3340 5043 4185 553 225 1187 420 1774 546 107 23 197 44 198 45 2 2 -14
34 -36 72 -208 356 -476 1018 -591 1460 -25 98 -30 108 -52 110 -13 1 -136
-27 -274 -62z"/>
</g>
</svg>
